0.000000000	0.780000000
0.050000000	0.780000000
0.100000000	0.780000000
0.150000000	0.780000000
0.200000000	0.780000000
0.250000000	0.780000000
0.300000000	0.780000000
0.350000000	0.780000000
0.400000000	0.780000000
0.450000000	0.780000000
0.500000000	0.780000000
0.550000000	0.780000000
0.600000000	0.780000000
0.650000000	0.780000000
0.700000000	0.780000000
0.750000000	0.780000000
0.800000000	0.780000000
0.850000000	0.780000000
0.900000000	0.780000000
0.950000000	0.780000000
1.000000000	0.780000000
1.050000000	0.780188760
1.100000000	0.780492492
1.150000000	0.780837408
1.200000000	0.781281852
1.250000000	0.781750320
1.300000000	0.782275416
1.350000000	0.782865720
1.400000000	0.783425136
1.450000000	0.784003428
1.500000000	0.784557696
1.550000000	0.785148000
1.600000000	0.785729724
1.650000000	0.786325176
1.700000000	0.786908616
1.750000000	0.787577856
1.800000000	0.788226504
1.850000000	0.788883732
1.900000000	0.789511788
1.950000000	0.790129548
2.000000000	0.790790208
2.050000000	0.790761348
2.100000000	0.789908808
2.150000000	0.788780772
2.200000000	0.787500168
2.250000000	0.785565456
2.300000000	0.783658200
2.350000000	0.781404000
2.400000000	0.778872744
2.450000000	0.776323704
2.500000000	0.773756880
2.550000000	0.771036864
2.600000000	0.767947440
2.650000000	0.764280348
2.700000000	0.760838208
2.750000000	0.757238820
2.800000000	0.753085944
2.850000000	0.749324628
2.900000000	0.745275960
2.950000000	0.741428532
3.000000000	0.737385948
3.050000000	0.732753840
3.100000000	0.728213148
3.150000000	0.723561540
3.200000000	0.718882320
3.250000000	0.713756316
3.300000000	0.708770556
3.350000000	0.703688700
3.400000000	0.698523228
3.450000000	0.692885388
3.500000000	0.687279372
3.550000000	0.681476952
3.600000000	0.675489360
3.650000000	0.669716268
3.700000000	0.663358956
3.750000000	0.657452016
3.800000000	0.650953212
3.850000000	0.643889376
3.900000000	0.637340340
3.950000000	0.630115668
4.000000000	0.622863852
4.050000000	0.615370860
4.100000000	0.607859616
4.150000000	0.599475552
4.200000000	0.591390384
4.250000000	0.582919116
4.300000000	0.574013856
4.350000000	0.565196580
4.400000000	0.555935640
4.450000000	0.545985804
4.500000000	0.535008240
4.550000000	0.524581356
4.600000000	0.513797700
4.650000000	0.502339344
4.700000000	0.490356204
4.750000000	0.477508356
4.800000000	0.463877232
4.850000000	0.449418216
4.900000000	0.433932408
4.950000000	0.415825800
5.000000000	0.391896180
5.050000000	0.368523948
5.100000000	0.350862564
5.150000000	0.335374572
5.200000000	0.321370452
5.250000000	0.308578608
5.300000000	0.296291424
5.350000000	0.284784396
5.400000000	0.274003548
5.450000000	0.263502720
5.500000000	0.253917144
5.550000000	0.244722504
5.600000000	0.236055768
5.650000000	0.227399328
5.700000000	0.219072360
5.750000000	0.210951000
5.800000000	0.203526648
5.850000000	0.195656760
5.900000000	0.188542536
5.950000000	0.181803648
6.000000000	0.175140108
6.050000000	0.169033800
6.100000000	0.162558396
6.150000000	0.156905736
6.200000000	0.151008468
6.250000000	0.145175472
6.300000000	0.139749012
6.350000000	0.134380584
6.400000000	0.129344124
6.450000000	0.124469748
6.500000000	0.119511288
6.550000000	0.114783396
6.600000000	0.110243640
6.650000000	0.105739608
6.700000000	0.101577684
6.750000000	0.097470048
6.800000000	0.093453048
6.850000000	0.089627616
6.900000000	0.086059428
6.950000000	0.082308564
7.000000000	0.078854256
7.050000000	0.075610648
7.100000000	0.072198772
7.150000000	0.068903113
7.200000000	0.066140677
7.250000000	0.063418683
7.300000000	0.060526259
7.350000000	0.058142563
7.400000000	0.055568579
7.450000000	0.053084616
7.500000000	0.050857934
7.550000000	0.048624888
7.600000000	0.046726424
7.650000000	0.044896710
7.700000000	0.043304577
7.750000000	0.041667179
7.800000000	0.040230725
7.850000000	0.038815904
7.900000000	0.037813851
7.950000000	0.037034949
8.000000000	0.036545412
8.050000000	0.036423336
8.100000000	0.036315159
8.150000000	0.036219200
8.200000000	0.036116480
8.250000000	0.036006245
8.300000000	0.035914473
8.350000000	0.035778085
8.400000000	0.035668296
8.450000000	0.035541964
8.500000000	0.035431659
8.550000000	0.035340299
8.600000000	0.035215924
8.650000000	0.035088837
8.700000000	0.034986186
8.750000000	0.034832123
8.800000000	0.034721235
8.850000000	0.034595761
8.900000000	0.034476087
8.950000000	0.034294329
9.000000000	0.034150699
9.050000000	0.034011257
9.100000000	0.033858156
9.150000000	0.033740884
9.200000000	0.033615170
9.250000000	0.033430529
9.300000000	0.033245921
9.350000000	0.033049817
9.400000000	0.032880379
9.450000000	0.032712383
9.500000000	0.032531276
9.550000000	0.032346051
9.600000000	0.032178912
9.650000000	0.032022688
9.700000000	0.031808806
9.750000000	0.031624679
9.800000000	0.031456099
9.850000000	0.031279591
9.900000000	0.031083315
9.950000000	0.030870222
10.000000000	0.030677550
10.050000000	0.030475817
10.100000000	0.030238528
10.150000000	0.029994170
10.200000000	0.029757019
10.250000000	0.029442133
10.300000000	0.029136925
10.350000000	0.028859448
10.400000000	0.028548062
10.450000000	0.028227170
10.500000000	0.027918668
10.550000000	0.027576875
10.600000000	0.027259861
10.650000000	0.026894216
10.700000000	0.026557502
10.750000000	0.026183106
10.800000000	0.025865920
10.850000000	0.025518053
10.900000000	0.025090151
10.950000000	0.024680542
11.000000000	0.024209740
11.050000000	0.023674108
11.100000000	0.023189406
11.150000000	0.022683186
11.200000000	0.022153560
11.250000000	0.021664740
11.300000000	0.021175131
11.350000000	0.020641489
11.400000000	0.020147522
11.450000000	0.019721027
11.500000000	0.019272842
11.550000000	0.018840616
11.600000000	0.018341329
11.650000000	0.017916378
11.700000000	0.017459442
11.750000000	0.017014140
11.800000000	0.016625638
11.850000000	0.016239229
11.900000000	0.015812631
11.950000000	0.015412151
12.000000000	0.015005047
12.050000000	0.014590290
12.100000000	0.014187545
12.150000000	0.013750308
12.200000000	0.013402852
12.250000000	0.013031784
12.300000000	0.012647950
12.350000000	0.012298263
12.400000000	0.011924381
12.450000000	0.011594497
12.500000000	0.011250885
12.550000000	0.010914584
12.600000000	0.010605875
12.650000000	0.010265009
12.700000000	0.009951942
12.750000000	0.009624564
12.800000000	0.009316439
12.850000000	0.009004744
12.900000000	0.008683681
12.950000000	0.008382077
13.000000000	0.008092313
13.050000000	0.007865561
13.100000000	0.007616628
13.150000000	0.007348979
13.200000000	0.007109997
13.250000000	0.006883517
13.300000000	0.006643550
13.350000000	0.006436197
13.400000000	0.006218667
13.450000000	0.005989337
13.500000000	0.005779287
13.550000000	0.005568189
13.600000000	0.005399193
13.650000000	0.005232326
13.700000000	0.005083500
13.750000000	0.004938943
13.800000000	0.004803013
13.850000000	0.004690972
13.900000000	0.004596256
13.950000000	0.004541218
14.000000000	0.004485504
14.050000000	0.004477070
14.100000000	0.004470237
14.150000000	0.004469784
14.200000000	0.004462369
14.250000000	0.004454238
14.300000000	0.004447352
14.350000000	0.004443652
14.400000000	0.004440028
14.450000000	0.004432462
14.500000000	0.004422722
14.550000000	0.004410634
14.600000000	0.004403408
14.650000000	0.004390905
14.700000000	0.004386865
14.750000000	0.004379134
14.800000000	0.004365475
14.850000000	0.004357691
14.900000000	0.004340363
14.950000000	0.004332314
15.000000000	0.004319757
15.050000000	0.004309715
15.100000000	0.004300549
15.150000000	0.004286747
15.200000000	0.004274508
15.250000000	0.004259067
15.300000000	0.004244948
15.350000000	0.004228322
15.400000000	0.004212693
15.450000000	0.004194678
15.500000000	0.004183450
15.550000000	0.004165684
15.600000000	0.004154464
15.650000000	0.004134894
15.700000000	0.004118570
15.750000000	0.004098787
15.800000000	0.004080002
15.850000000	0.004060711
15.900000000	0.004043118
15.950000000	0.004024718
16.000000000	0.004000746
16.050000000	0.003978125
16.100000000	0.003954854
16.150000000	0.003930527
16.200000000	0.003900680
16.250000000	0.003876904
16.300000000	0.003849028
16.350000000	0.003817256
16.400000000	0.003786027
16.450000000	0.003748970
16.500000000	0.003712298
16.550000000	0.003673519
16.600000000	0.003635586
16.650000000	0.003597532
16.700000000	0.003550591
16.750000000	0.003512386
16.800000000	0.003471614
16.850000000	0.003423880
16.900000000	0.003374432
16.950000000	0.003325823
17.000000000	0.003271754
17.050000000	0.003195284
17.100000000	0.003122936
17.150000000	0.003055745
17.200000000	0.002986923
17.250000000	0.002934508
17.300000000	0.002881452
17.350000000	0.002814774
17.400000000	0.002753971
17.450000000	0.002696769
17.500000000	0.002632734
17.550000000	0.002578839
17.600000000	0.002516979
17.650000000	0.002453993
17.700000000	0.002401073
17.750000000	0.002353399
17.800000000	0.002295669
17.850000000	0.002245353
17.900000000	0.002189427
17.950000000	0.002131742
18.000000000	0.002085330
18.050000000	0.002027803
18.100000000	0.001984796
18.150000000	0.001931053
18.200000000	0.001887887
18.250000000	0.001834362
18.300000000	0.001788924
18.350000000	0.001741183
18.400000000	0.001689447
18.450000000	0.001644220
18.500000000	0.001596600
18.550000000	0.001555443
18.600000000	0.001510427
18.650000000	0.001472547
18.700000000	0.001424353
18.750000000	0.001386095
18.800000000	0.001344017
18.850000000	0.001309028
18.900000000	0.001268716
18.950000000	0.001227816
19.000000000	0.001189399
19.050000000	0.001151965
19.100000000	0.001109099
19.150000000	0.001073993
19.200000000	0.001048748
19.250000000	0.001017123
19.300000000	0.000984981
19.350000000	0.000954273
19.400000000	0.000923490
19.450000000	0.000890233
19.500000000	0.000859362
19.550000000	0.000831626
19.600000000	0.000808651
19.650000000	0.000787527
19.700000000	0.000762266
19.750000000	0.000744990
19.800000000	0.000725092
19.850000000	0.000709599
19.900000000	0.000696658
19.950000000	0.000686719
20.000000000	0.000679772
20.050000000	0.000680127
20.100000000	0.000680324
20.150000000	0.000680426
20.200000000	0.000680275
20.250000000	0.000679438
20.300000000	0.000678513
20.350000000	0.000677486
20.400000000	0.000677048
20.450000000	0.000676500
20.500000000	0.000676061
20.550000000	0.000675915
20.600000000	0.000674569
20.650000000	0.000673736
20.700000000	0.000673000
20.750000000	0.000670797
20.800000000	0.000669796
20.850000000	0.000669402
20.900000000	0.000667935
20.950000000	0.000666882
21.000000000	0.000665749
21.050000000	0.000664266
21.100000000	0.000662643
21.150000000	0.000661417
21.200000000	0.000660576
21.250000000	0.000659000
21.300000000	0.000657462
21.350000000	0.000656042
21.400000000	0.000653955
21.450000000	0.000652387
21.500000000	0.000650110
21.550000000	0.000648680
21.600000000	0.000646273
21.650000000	0.000643964
21.700000000	0.000642544
21.750000000	0.000639629
21.800000000	0.000638869
21.850000000	0.000635160
21.900000000	0.000632514
21.950000000	0.000630134
22.000000000	0.000626968
22.050000000	0.000624217
22.100000000	0.000621240
22.150000000	0.000617795
22.200000000	0.000615023
22.250000000	0.000610201
22.300000000	0.000606498
22.350000000	0.000601236
22.400000000	0.000596106
22.450000000	0.000590068
22.500000000	0.000585009
22.550000000	0.000579299
22.600000000	0.000573331
22.650000000	0.000567730
22.700000000	0.000562017
22.750000000	0.000555024
22.800000000	0.000549759
22.850000000	0.000542574
22.900000000	0.000535397
22.950000000	0.000526459
23.000000000	0.000517979
23.050000000	0.000505828
23.100000000	0.000495865
23.150000000	0.000487129
23.200000000	0.000478098
23.250000000	0.000468521
23.300000000	0.000459914
23.350000000	0.000449730
23.400000000	0.000440663
23.450000000	0.000431154
23.500000000	0.000422059
23.550000000	0.000413334
23.600000000	0.000405957
23.650000000	0.000397241
23.700000000	0.000389670
23.750000000	0.000381914
23.800000000	0.000373117
23.850000000	0.000363295
23.900000000	0.000354239
23.950000000	0.000345350
24.000000000	0.000338510
24.050000000	0.000330590
24.100000000	0.000323749
24.150000000	0.000316152
24.200000000	0.000306653
24.250000000	0.000300220
24.300000000	0.000292798
24.350000000	0.000284990
24.400000000	0.000278611
24.450000000	0.000271633
24.500000000	0.000263336
24.550000000	0.000256837
24.600000000	0.000249500
24.650000000	0.000241637
24.700000000	0.000233856
24.750000000	0.000227433
24.800000000	0.000221656
24.850000000	0.000216598
24.900000000	0.000210330
24.950000000	0.000204701
25.000000000	0.000197234
25.050000000	0.000191345
25.100000000	0.000184673
25.150000000	0.000179930
25.200000000	0.000175127
25.250000000	0.000170344
25.300000000	0.000164623
25.350000000	0.000159418
25.400000000	0.000154480
25.450000000	0.000148505
